…
The template actually provides the script for a simple Shiny application, which you can launch by highlighting the script and clicking the **Run App** button in the menu bar right about the script. You can develop your own original applications by swapping in (and/or adding) your own title and application elements (inputs, outputs etc.) as you go. Using this template allows you to focus on these application elements, instead of worrying about writing the broader skeletal structure of the app from scratch. 

## Our first data application: querying flight delays

In your previous work learning about data analysis in R, you may have encountered a dataset of flight departures from New York City airports in 2013 from the *nycflights13* dataset:


``` r
# prints flights dataset
nycflights13::flights
```

``` output
# A tibble: 336,776 × 19
    year month   day dep_time sched_dep_time dep_delay arr_time sched_arr_time
   <int> <int> <int>    <int>          <int>     <dbl>    <int>          <int>
 1  2013     1     1      517            515         2      830            819
 2  2013     1     1      533            529         4      850            830
 3  2013     1     1      542            540         2      923            850
 4  2013     1     1      544            545        -1     1004           1022
 5  2013     1     1      554            600        -6      812            837
 6  2013     1     1      554            558        -4      740            728
 7  2013     1     1      555            600        -5      913            854
 8  2013     1     1      557            600        -3      709            723
 9  2013     1     1      557            600        -3      838            846
10  2013     1     1      558            600        -2      753            745
# ℹ 336,766 more rows
# ℹ 11 more variables: arr_delay <dbl>, carrier <chr>, flight <int>,
#   tailnum <chr>, origin <chr>, dest <chr>, air_time <dbl>, distance <dbl>,
#   hour <dbl>, minute <dbl>, time_hour <dttm>
```
…
